23

10
bW6Rg0lU-18770589
xMT6X6zD-14382024
YxQuKglN-47413568
wau2dxY_-22229147
i06zcySw-87715485
AvO9yFQh-19870232
abuTnFZd-29069079
3b2vr2jt-91018276
DyfqGT3K-89575866
wa8uSM8V-43776994
10 2 6 7 8 3 1 9 4 5
5 2 1 6 3 7 4 10 8 9
9 6 5 8 3 2 4 7 10 1
7 3 6 9 1 5 10 8 2 4
8 9 3 2 6 5 4 1 7 10
8 3 5 7 9 2 10 6 1 4
2 7 6 3 4 5 9 1 10 8
2 6 9 7 5 4 10 8 1 3

1
lLcV2nEK-08680770
1
1
1
1
1
1
1
1

3
miNQTrZO-28464115
UMv7HkpE-73282975
wY2K1hoF-53389785
3 2 1
3 2 1
3 2 1
3 1 2
3 2 1
1 3 2

9
xlLhPY7g-98112210
8Z3hKQM_-86607363
JZMIXpH1-67552930
I0lmXZV4-62857334
oBfd5V7C-52935125
e2U_S430-53399472
8dKzjfGK-78802608
VuL4sZFt-03835054
RtQASpqu-23237170
1 2 3 4 5 6 7 8 9
1 6 3 4 5 9 7 8 2
1 5 6 8 3 9 4 7 2
7 1 4 9 8 2 6 3 5

9
39RLmu6o-50961653
jj0zZkMm-78427185
65bsjGaV-86563008
0sEXu2K3-52429919
MzcWED3I-97281324
fgpSFXzi-25783815
cmYUI3tp-42934753
ekeqpo72-16429171
G3WdUKhR-20099363
4 6 1 9 3 5 2 7 8
8 2 7 5 4 3 1 6 9
5 2 3 9 7 1 4 6 8

10
ccy6UUfy-37141944
7K8PNghJ-77411825
7tYkjoMU-64609063
csdiBvJq-62908320
JV9edh9Q-24333084
CgSUfo9U-60088147
kBnhtnuq-99430661
SICPrMiX-01089718
ulybp7_v-69452107
Xifil_m3-25740974
1 7 9 4 3 2 6 8 10 5
9 1 10 6 3 2 7 8 5 4
7 6 10 1 2 9 8 5 4 3

7
pX8KukJt-02633323
Das0ISr7-59912780
4zC90TgB-83097499
utdlQP1V-32599289
EomV7eaF-19812767
uOm486ep-99394784
FfUlgRyK-57241067
5 3 7 1 2 6 4

6
MtqQyqLu-19264768
IEmNBrUi-74256085
0tmmeC71-15194462
dfs1Grp5-47793790
AFiFJ0R7-73068688
OanlEpE2-50002798
5 4 6 2 1 3
1 4 5 3 2 6
3 5 4 2 1 6
3 1 2 5 4 6
2 6 5 1 3 4
2 3 4 5 1 6

3
YzRdMCJb-04948424
8VveDMTk-38492025
ss_N57MY-20123183
3 2 1
2 3 1
1 2 3
2 3 1
1 2 3
2 3 1
3 1 2
2 3 1

4
DShRk0sg-96368142
MIw6TvXM-94059058
x_evmypz-03497761
qeZ5Twv5-68455188
3 4 2 1

8
cJlI7V9x-84777716
VhUQD7tq-14176491
h7gQexfE-55327696
u5w6Lj1w-08890200
TuV64fEA-24296186
XN5zoQr9-45539738
jKGfUYc7-09726469
koJursVh-41098609
4 3 6 7 5 2 8 1
6 7 3 1 4 5 8 2
2 7 4 3 5 1 8 6
2 4 5 7 8 6 1 3
7 6 2 3 5 4 1 8
8 6 5 4 2 1 7 3
8 2 1 5 6 4 3 7
8 7 1 4 6 2 5 3
1 5 3 4 2 7 6 8
7 8 5 3 4 1 6 2

2
oOhAT_OJ-22993641
BZ3tQLwb-09362924
2 1
2 1
1 2
1 2
1 2
1 2
2 1
2 1
1 2
1 2

3
Q_F4l_LA-61272756
qRiRnok4-15063109
BaXdJaJc-59524898
2 3 1
1 3 2
3 2 1
3 1 2
3 1 2
3 1 2
1 2 3

5
eWmsFSGR-94039804
nN4hPezB-92724324
NZjX1_SE-36423679
WIx7Eik2-01431899
Jyn4lFoH-34997449
2 3 1 4 5

8
2d5SbZzn-85925221
NJK3BVEI-12293982
5vb8esyd-24955922
ht_28S7S-89748896
75ch22lj-92271122
Cv2tcBXp-58897502
Cd2jWDUn-28157508
y3P6of_C-37345810
6 3 7 1 5 8 2 4
1 4 2 6 5 8 3 7
7 2 6 3 5 4 8 1
3 5 6 8 2 4 1 7
4 6 3 7 5 2 8 1
3 1 7 8 2 5 4 6
1 7 4 3 5 8 2 6
1 2 5 3 7 4 6 8
6 1 5 3 4 7 2 8

1
qL782PDF-08693634
1
1
1
1

1
bEkqfZ_i-55382566
1

8
nJU4BmIU-55582324
pzKnBCkJ-35076696
IaD3aNm4-37814935
DdoCjo7k-37639640
OEDUsp88-94752897
77fdZjm_-89686801
9G3zCvJb-54942260
lq0GMJtB-92266167
8 2 6 3 5 7 1 4
3 7 1 8 2 6 4 5
4 6 7 2 1 3 8 5
6 3 5 7 8 2 4 1
2 1 4 8 7 6 3 5
6 4 5 7 1 8 2 3
2 3 1 4 5 8 6 7
1 8 6 4 7 2 3 5

6
a2LgovQZ-81827102
w6RvYRk0-38808819
oJpBp5Yj-30084212
tKjmo6yl-48065098
MARKKUM_-89904675
YXo_KbCK-74171607
6 4 1 2 5 3
3 5 2 6 1 4

9
iZfxijDE-50014251
aguedK34-21825696
QzASaOG1-04667944
jCCf2_l8-20562936
XLnc___K-70054582
J4aZc38B-56132482
IsgA94_P-24766222
EDan5nP4-07160096
AwO_Y6hn-94391144
8 5 1 4 9 6 3 2 7
1 8 3 9 6 7 5 4 2
3 8 7 1 2 4 9 5 6
5 6 4 3 8 9 7 1 2
3 8 9 1 6 2 4 5 7
2 9 7 1 4 6 3 5 8
9 2 1 8 4 5 6 3 7

2
rTiSB9mt-29615909
SbFfpQpj-12614215
2 1
2 1
1 2
2 1
1 2
1 2
2 1

4
MSDFJZIl-69287198
qtM1Pkt6-54495100
cQ4FQARP-66347472
4vJYrvTI-34813718
3 1 4 2
1 3 4 2
1 3 2 4
1 3 2 4
1 3 4 2
4 1 2 3

6
dhTMk6mM-36909088
8jby65vC-18030490
LSWNWyb3-94359752
eFXYxvYC-08550330
HzpLx7Tj-81007604
eYCpJkWR-59562500
3 1 6 2 5 4
5 3 2 1 4 6
3 1 4 6 2 5
