25

5
f4_Y08Z9-26424684
RxEAdJlS-27989065
0ZOfdCX_-44442802
LPSIA4qM-60135358
zxVkF2_0-37753529
1 5 3 4 2
5 1 2 4 3
1 3 5 2 4
5 4 1 2 3
2 3 1 5 4
5 1 2 4 3
5 1 2 3 4

3
9NOlmDm3-38461875
EeCLgzyo-00979522
NEePgOcP-03003790
3 2 1
3 1 2
2 3 1

3
7FQKzdGD-27812897
pMH8CN2S-74861300
nTB5f33a-46958972
3 2 1
1 3 2
2 3 1

3
1c1gbfa3-71497202
6XQRu8Jy-65222397
56SQxDpT-58557759
2 3 1
3 2 1
1 3 2
3 2 1
3 2 1

2
UsZrmoXP-69980461
ubZ7LihD-26998396
1 2
1 2
1 2

2
o2reunUF-17921479
moiBqw7P-32634162
2 1
1 2
2 1
2 1
2 1
2 1
1 2

2
Yc6qlo7I-36240198
lNKSLi43-52425050
1 2
2 1
1 2
1 2
1 2

3
Zu48kw5L-36358531
0mvCYZIS-00480295
YyPhougj-02674769
3 2 1
2 1 3
3 1 2
3 2 1
3 1 2
2 1 3
1 2 3
3 2 1

1
mCv2S8rN-97537355
1
1
1
1
1
1
1

1
xNkkYAyd-66398058
1
1
1
1

1
lznyJws5-22468131
1
1
1
1
1

4
nfdsEJdX-56971072
LDW3oy3B-00366038
J1sO8PZB-10500736
esuXvI9f-93865703
1 2 4 3
4 2 3 1
3 1 2 4
4 3 2 1
2 1 3 4
1 2 3 4
3 2 4 1
4 3 2 1

5
8g5qrflX-62966602
WtF9Bock-10371981
Do6LMLOB-26442601
flHr1sKf-79926598
_rlgHbAY-02799839
1 3 5 4 2
1 2 3 5 4

3
HWbV2gvK-41218811
nwdGe6qN-04534606
JOnOmS8b-64427452
3 1 2

2
WXDssiK7-01794421
7fOrEN2u-91870020
2 1
1 2
1 2
1 2
2 1
1 2

3
1ZNuJWa6-27057034
IlIlmGuO-31570937
67KJmMSD-72649602
1 3 2

4
A2OEePCh-14434236
JC19FFNI-18797334
1HYGOVE_-92907623
I7qQvmEK-52671810
4 2 3 1
2 3 1 4
2 1 4 3
2 1 3 4
4 2 1 3
3 4 1 2
4 2 3 1
1 2 3 4

2
wx3GUgSF-21407710
Vm7U6jhV-24929986
2 1
1 2

2
40IP4SxH-45948908
jwNYac8n-74888837
1 2
1 2
2 1
2 1

3
NF7PN5x9-59353506
j1FgcCRt-59780864
TKYORFlo-53142027
1 2 3
1 3 2
2 1 3
1 2 3

1
a6G2ZgMv-69103934
1
1
1
1
1
1

5
n5tdLBnp-46535668
bZVay7NH-50774337
cPqqbbU6-02148299
Q9Apa1bk-82037014
QPGalnG7-35353205
1 2 4 3 5
1 2 3 5 4

4
UzbkV9b6-07346047
g8YBScyb-13512999
X72yYiwm-83614451
RxWkjcCu-11897206
3 4 1 2
2 4 1 3

4
yxKNjYZM-20198355
YpuN_7PI-31273251
mzOFFpMZ-26555340
KNnu4UOu-44765317
2 4 3 1
3 2 1 4
4 1 2 3
1 2 3 4
1 2 3 4
4 1 2 3
2 4 3 1
3 2 1 4

1
U9WrU1t8-94195345
1
1
1
1
1
1
1
1
