21

6
87Azj4O9-28762570
yVJLzPDx-99681850
lSIT0FrE-88970126
5njQi5dq-59851246
_MHOf1Cl-55926152
nH3RmqZj-86010928
4 6 2 1 5 3
2 1 5 6 3 4
2 1 6 5 4 3
2 5 6 1 3 4
1 2 3 4 5 6
1 6 4 2 3 5
1 6 5 3 4 2
2 1 4 6 3 5

5
Ka9TeE_8-48750873
5UGUKWpG-20698470
lrE89jmM-23935108
WdErw6Id-02407326
mk7st0V7-03656447
5 4 2 1 3
2 5 4 3 1
3 5 1 4 2
4 1 2 3 5
1 2 3 4 5
5 3 2 1 4
2 3 4 1 5

5
HgiRwTD4-60805970
a2XcLsz4-41300843
xh7oZrda-81006176
qIQCSkR5-52647737
ABiXXgh9-11506254
5 2 1 3 4
4 2 3 5 1
5 3 4 2 1
1 3 4 5 2
4 2 1 3 5
2 3 5 4 1
2 3 1 4 5

6
ie6Gx0qB-71781885
Wy2Q6V39-29553587
MiImcGzR-13976063
qrsDlQpT-86404024
TWqkaXJ9-56681590
gL5JV4p8-30688007
5 1 3 2 4 6
2 3 4 5 1 6
6 5 4 3 2 1
2 1 6 3 5 4
6 1 2 4 3 5

4
si8n6TqV-04751310
yF28ioO3-30727515
Ez9ph9ST-92772268
7uGCtRPY-62140193
1 4 3 2
1 2 4 3
4 2 1 3
1 3 2 4
2 1 3 4

5
k5sH4M80-55393326
BBrVEJP0-85360320
2vZLN1MP-04403954
0sgMHDci-38365623
w4eUbFx8-55994668
3 1 2 5 4
1 4 2 3 5
5 2 1 3 4
1 2 4 5 3
2 5 3 4 1

4
Yx1bLw11-19468874
pdgj8Sv6-00393359
oOT8li3c-23637009
Lp4xVYEL-13521162
1 2 4 3
4 2 3 1
3 1 2 4
3 1 2 4
2 1 4 3

4
tWyeVNHk-80815892
IbU6RdPA-57566758
XmM1N0TK-40152481
V2Ommmpd-65634274
4 3 1 2
2 1 3 4
2 4 1 3
2 1 4 3
1 2 3 4
3 1 4 2
3 4 2 1
1 3 4 2

4
AxCZGEwW-89098319
FCb2pu8G-64648647
xDgm08Xh-87721492
s18qDaGv-68198631
1 2 3 4
2 1 4 3
2 1 3 4
3 1 4 2
3 2 4 1
3 4 2 1

4
TVKw4Rrd-54054320
Su4lo3OI-29178870
ZYotNBGw-65083961
lfIdlnUB-97680662
2 1 4 3
4 3 1 2
1 3 4 2
3 1 4 2
1 4 3 2
4 3 2 1

5
vC8Od0ts-25500820
qMCsCH1T-31896275
pwWjsAn2-42779476
qi0Dqqft-89299385
4FvCQ1nZ-63534705
4 2 1 5 3
5 3 4 2 1
1 5 2 4 3
1 4 5 3 2
5 2 4 1 3
3 4 5 1 2
5 3 4 2 1
3 5 2 1 4

4
ryaGAv4c-65312331
VC9uds38-93726508
jZBmPWd1-12425562
tQAxjll1-71902211
3 4 2 1
3 1 4 2
3 2 1 4
4 1 2 3
4 1 2 3

4
cZ0LkN1Y-79878427
Stx2bYfL-68347287
rRJbrRKk-58596760
rx4jnl3e-60818609
4 1 3 2
1 3 4 2
4 2 3 1
3 2 4 1
1 2 4 3
1 3 2 4

6
cVJmd6SA-41796748
11xR4EmI-22275569
L5yZJIy6-02429911
xfCYdLD4-27917931
Gc6Lmvq0-46328599
qXZHQDID-86189519
2 5 1 3 4 6
2 3 6 5 1 4
4 6 5 3 2 1
3 2 4 6 5 1
1 6 4 2 5 3
4 3 5 6 2 1

4
nspiZfmd-88277204
jvRn06G0-34824111
ad0R3D11-21171252
Y8Nl5cvB-27423968
3 1 2 4
4 2 1 3
1 2 4 3
2 1 4 3
1 2 3 4
3 2 4 1
4 3 2 1
4 3 2 1

5
dzrPGZLE-79775222
16jC37YO-39064959
00TuWWEU-08074622
z_5ty5MY-28586833
NCyNqebg-57059663
2 4 3 1 5
3 4 1 2 5
3 4 5 1 2
3 1 2 5 4
5 1 4 2 3

6
9N8qOBpY-78210463
4RD_QMUv-43086983
u8XR0YKY-78663021
WSaPH8wP-25377236
wOEd2Bvw-59095205
YLGA8Hjo-65087015
4 6 3 1 2 5
1 3 6 2 5 4
5 2 3 6 4 1
2 5 4 1 3 6
3 1 6 2 5 4

5
nF22LRuV-10111228
5bE0iaab-05413613
AZCbeVNx-97345702
UNItdMl4-75675931
qa8zsCKs-02180167
5 1 2 3 4
4 1 5 3 2
2 4 1 3 5
5 2 4 3 1
5 1 4 3 2

4
uE1_fKD1-70098809
FcZ2L7tK-88667102
28R3oiXh-40991669
9VKz1zrq-15296864
2 3 1 4
4 1 3 2
3 1 2 4
1 2 3 4
4 1 2 3
2 1 4 3
4 1 3 2
1 3 4 2

4
w9M2wmlm-96059915
fBdxOli_-42711520
_audyLc4-63425650
8vmlpvMj-23104488
4 1 2 3
1 3 2 4
2 3 4 1
4 2 1 3
2 4 1 3
4 3 1 2
3 4 2 1
4 1 2 3

5
dcWLn8BP-47869382
Yn6_B705-08419357
hawIo8AQ-88846281
p5Qz6Id6-36264223
hyOSPqCP-31238955
3 4 5 2 1
2 3 1 4 5
5 4 2 3 1
3 4 1 2 5
2 4 3 5 1
2 1 5 3 4
1 4 3 2 5
5 3 2 4 1
