za_OendW-19011346
5tIZtNBn-64378943

pLNFJnSU-50112773

AW8KstgO-19628803

PLghHBSe-52039311

Q5M6Vl28-43242541

lXNW7d8q-03275370

WVSPQiJK-73927955

ngMaLaQb-34435076

pXT9RpGI-42048283
8ryVqC17-75612644

XY323sAg-19764224

oRfliuOc-64811416
s3Z_jTFN-89829173

mD77L5hF-24699278
01XTvgYJ-03703412

nb6sSPkf-16761509
8UUHtf8K-59984200

NtznyjxU-37904379
e3IlTpdl-14154635

YEKX_7Cs-43515446

wiw_JM2R-31838848

BOjkF2HO-06136422

8u3AK_BV-64226538
8Iy3GcG0-09547328

4imlqov0-25126328

Vl86Yfhq-22097916
