20

4
BzxzUm
bG^Y}x[8K
U)i<*!|!nL37__W75+qF0*@;Do^&-$E'Ub|A@GY[FpTo<4JqNnV2
_T-<-oHYh{gi&"HlStQ8Ast:qK"DTk-Crv]c<_049uAbp7#7O*;^<lv
1 3 2 4
3 4 2 1
4 3 1 2
2 3 1 4
4 2 3 1
3 2 4 1

1
>$ONg'&3
1
1
1
1
1
1
1

2
$D>S&bY+OSeyI]AH;r,jqwlrCfV"9iz?L=R&MdZ{j
#RR1M.(I6Ws*BVK-d8'|7:$#8$D-qNcQSh5TeMP!W7d[&Ow)kp9F8>fE
2 1
1 2
2 1
2 1
1 2
2 1
1 2

9
<Qoa%!7*kM)H);kR-(d}lD[NH+s|z44-8(-KQg^pgXW]
6:NN.|m]%Z+mFz?X;-t9ur${V|"6aIw7A98-0_!|,Tc}(cMxMu"u
vjUm3o#??HA83kw?In,P^-+F-g*e004-9mW{}w{{s%W+MH++i
yL%i*Y%WrD
+nHVxwKT![zM<j[ESva-iLY&q!SB}+
!WHu)rs}Pfo}c=B"DX"$t'z<k>P?N]>mJ'"*kmuZ*.c)_EB@PvN8pA5]y8[#V-MT&G[Ogg2[cstKkVk
El+hLcUyzGY
*Y}jS$lYHB>>
(I4Bg(
6 2 5 7 1 3 4 9 8
2 3 5 8 1 7 9 4 6
1 7 6 2 5 8 4 3 9
6 8 5 1 4 2 3 9 7
6 7 9 1 3 5 4 8 2
9 4 2 6 1 3 7 8 5
5 6 2 4 1 3 9 8 7
4 6 9 5 7 8 3 2 1
6 7 1 3 2 4 8 9 5
4 3 7 9 1 2 5 6 8

6
"Kdr}5I*v]O4(s$H
-vf-9p$2XCdiT0c:ruH-qngd1y-H?r_JMNu!2VA$L;+'RM=9u
hK'$OiayPZd=XdyF$O
1pAT?tYL4+5K;3E4fas;QGU};Yow
2kdG>k'r8E+SX_<omp_#I@&%u6t
_d)>n-:m"=;rpB9Aj6P++x
6 2 5 1 4 3
5 6 1 3 2 4
1 5 2 3 6 4
6 5 3 2 4 1
4 3 6 2 1 5
5 2 4 3 1 6
4 6 1 3 5 2
3 2 5 4 1 6

6
X|IEvH<SlFdY1!)B$[=#w:ZB:"vq3hipXQhH[e]X<Q!Z%ROQ;z
$(Edy[[OQTWtfaAaM']>Q;836$fk5'{G@(<<5K?9;j|Wj&
kx<8%}:FV5?5[:h)3{&oT%$q6-6&'>B3wyzY$rRwLQPxIXeZ
JBSlcwF[QkGc?<yx=KZ2|+bG]]D>;|<A(Pa_zF7^P1FcY4{<2N0S-pN9c&7Uu4Ia7IJ"%4x*t3_F+8D
9RST6TrxxM*ffn6Akd+[v6rO=Z)u+
uSp#0-t*7e*M9KnD@x"U9p%Pr0c?_M9cS]CgxVL:nr:=15%{;x
6 4 2 1 3 5
6 1 2 4 5 3
3 6 2 1 5 4
5 6 4 3 2 1
3 1 6 2 5 4
4 5 3 6 2 1
5 1 6 2 3 4

9
v5*P8dpXeWy%DQ?O181'h*oDDl?omO
,73K;v
d]!B11*0e"-tNR>1_}$IdN-}JfhHX|V0^_
EJuSb^D+q
)G3x7Z{i<EfcLNZ}.n4&2.%Lc^oFYE%"y'r'S5cP<7f.it=fGPJX
l.cPk,1c9jBq{_8U-@Rg*Oo>z):DrdC|?:'9{V#l41CTJYb_[S{3Ucp_K7l1@bf!U?IIU8h#x<tuk_c
}|nJTCr;<|g8SlHa!D.(?dT-1Ae@97vYXI,4
$jvr^S9PN9n&5"DxbnMB*@>M"kYCg&0H{JY3}wgCT_6n%<>^!K4Qjr|dBc',)h
7eP["@T-sBR'3O;"$B
1 9 8 3 5 6 2 7 4

5
pfAuUm%ttm?U3T@6K5HA(m[jH
C5.f!#kYUsz-?S.>10RA_Q"^E#}qJ-4#QpF%PdB<v0)u6D(vRyWzCQcuqRKZ
3]"G(8++X(e@nyGef1W;
+)pMb'R?h,2"}.BmFk9@^<[1D;uSblsKSH-hB|hI=x|B_*Nn|!]t7z_Y&df*%=q+(0|he<d
vUr3]s&D|rWYRFk+.^1!
3 4 1 5 2
2 3 1 4 5
4 5 2 3 1

10
1L#'B;dN.Im(:
,reAy?)w1FsvHWX0S$Z(uPxx|uuc0mSVDWJ2V&[kk4"R^f6v(
1aw[yn6g^usvDWFA#{fYZp*huUm{DT8:h:&F5L?<tssXCY=ca
on5'uOb,CEOY-Vf1Py0OvHuOSW0:Y0I$C2uWewf"0hTL3m06K%8uj;wqN-i0>Q
{gVLk*ef"mm'D[T<-+teSkA8m!&#xvbl}kkaQp5K}FDsrKpb)I6zhU.t)#'4VUDL4O?8r4g6<<[%,
^%X<c4SYLzyE;_Mu)fw(BbKI7,'T9P8aru>)[eFyDsq_03cHw]nXO
TkgNrDQ{D7i}dU'.(-oX4%ovj>8-jk,3ub4a:i{-DW@"et;L35.wI!ff8$Q*LL.6b0u'wi^
4di8-?hN5391BC
X3!;d!]x@cRs[Z.a*Zjb
8j-}AiQ2Kzn2<e5vS|"iHn"U9,z-4AtA<3qy@uO!T1{fuTAA<+IEW|M)=@3PZ-ElbiJBC=ZKaNP
4 7 3 8 9 10 5 2 6 1
3 9 6 2 7 8 5 4 1 10
10 1 7 3 4 6 8 2 5 9

6
nXPfu"*[^2HYt%gO#$6ciAM=+#a;L^MY{}ri+XVm$|!"s
:g3U%R"ZBvn(6Qt(F8>bgVWswb
&t+$#P:_r<DFyYS5s<[>|i.;ofc,}dM6-+,kzN'eKwJx_||aNCYDKV_Zo-ieNiy
;t.&u}+4@s}T8Fh9760g^JtRt}V7<HTOoP
IF214IQm5K)Cfb;@EAS-h,'C:B+,d]oM(EbK#fW'P:wjT$I[1Pw8KpZDeI[ivaib:jMs%Wm(cI}W9=.
4 6 2 5 3 1
2 6 5 4 1 3
1 2 5 6 4 3
2 5 1 6 4 3
3 1 5 6 4 2

1
RKiD!{[<+TnJXptL*XOzm;aQ|[ng7#s#k{eICQ"m<hjjxDi2OW|pN|t;CG><g&y&tCnV(hvD
1
1
1
1
1
1
1

4

-iq[4gb5W_X[pj-+]i06>BqEI?v!:wy%Ec1Xiq&4?BQ%>{XMWlgia-MI-w7%STf-Vu,rK#+
1]@0CxaM.gj<;j'BF0d=h8wq|rHB;&yh4>7U+7U*B3%($whgK@:SH%8
'4nLI?S0XniGI3#x_ceVylq9Ki^(-?4D3F%a:_0QVxK;Ok^wn)(LSW8;sLx2LP'2Iw2Ae*&ocp
4 1 3 2
3 4 1 2
2 3 4 1
4 2 3 1
1 4 2 3
4 3 2 1
3 1 2 4
2 3 1 4

1
c"7*0@4.L5#gt.8}jflhd(i,eRjS%Q@&KGVY5%VeHv!or,3{a^VdVr?nw85>mE^ly[9
1
1

3
WVbu9(^}u^4DHnU"}&
UDD]6OlS@37Sn&
,c{@;icVaJwU;l]i6qLh-N(|m<l4!|#6:0'+wV:-ToFK{(SiWRpGSV-5T.=r[XLE@
3 2 1
2 3 1
3 1 2

2
FvfMD1RgV>qG39|OOC0{6]()JuME^)39dxj
M01.Y*|^OG(|8"EC)lj*'jj9QA"hXdc>r3UEIK7K&NAM
1 2
2 1
2 1
1 2
1 2
2 1

6
riYfc635wpLN9^+7Kt?MhLHA$!s#(4IXAU3D%_W><,Lu!_}91{9x]4loD:O9WK+-:a$7IytFttnSbc
rQ[O;eZfHfh51Rca<2B4>ZMDH5Q]ug2LkcNbg16c6$7w(x-^]l.=zI%
b(TvMjvWl8Xrx*):gc%[zYp#xlXWh]qi5x:f"np5JA=7fsn@v}XUbBvyaG
iuZqNL8TF+w?tXKOq21|=eb"fCp;DjALDOp*][[svi*ctpeKG5Ar9BlC4{uV>UU}.96JjgqF^,,
@aGft6wRW.)%KbxIk*[6cgemnu
|^0MO0HTI1E]l{6]yw!vGPh0gn4({MLE&?*
4 1 2 6 3 5
1 6 2 5 4 3
6 4 2 1 5 3
3 4 5 6 1 2
5 2 6 1 4 3
3 2 5 1 4 6
1 2 4 6 5 3
6 2 5 3 4 1
1 4 6 5 2 3

10
%2%?ADNyE}p9|L_RH_&5Z[;?lQ;yqk5'A,:0y'NqIq
yqwDX4h&rTwq5#h;;
kKgg|7EJiV(y.4O(.0K3:2loGEPO
"u"EA0_V:r3bX|Yq:EmSDD?TOn](2}2WjkO>!wTqclsZ1E^hwPoZ)ng+{UqRJG1hQ4f%{Y:Qx
eM
HizLwMs<h1=1*|>lgfp!!;m=K3ii7j@2rYbbY)>5J+u%A){GM3e@
qWT)spc}O5gauhnc5(LP1n^.1j.t$7C;rJ@>YB]1"UpppC*+j
[y;puh[q{Z[&Q3n^1zfP{Z<4Cm"hVdxHB^WjKIAy,#caD^^T2I.f.T9yt3G^vrkkUvu:3iqn_(nl
Q4A]oF+v2
P)b(c)Q$B@,u;3>4LF*kc+DC8RvfBLBEtCk+9oW?Of)'8FX7!|(B@jr.oN1dM|H5)fPQ_Zdw5-p}q#X
6 7 2 9 5 3 10 4 8 1

2

;$cyHf^p4GL=ro$H{[+e^Z'DiF5eG?M=$c!8hb=AHwlY>MT[yDQ1Q<
2 1
1 2
2 1

7
lq8MtGi{,ToCD{}BAI$nzr%DpvPf,t|gKmhrg^fbx_
08(|W^392Ja"Y+<r&rh-1)R(]vL{g)(6dYk0}%=S@La=u<c>o!J^R{jF9jt^|?KUmiibK
hj'h"$f<#tvjX#Xufv;]>_M.C

>oPfv
YDTA.e0pz9Aauj5dagcITY!53wH7|ruOUBCe"|)tZ
)I*bL*hboo0MI*xDMnUup2kS6eIOxWk5S}6R6BTIe7+MM6^N)[7WO*cj+?
7 5 3 2 4 6 1
3 6 2 1 5 7 4
1 7 5 2 4 6 3
1 3 7 4 2 5 6
1 3 4 7 5 2 6
6 2 7 3 4 5 1
2 3 4 6 7 1 5
5 2 7 6 4 3 1
3 4 6 7 5 1 2
1 5 6 3 7 4 2

10
3)"GCms:jN7)jsp5n$"D>y?RwS7I6jHxQ}rHcJz@K"hU#wn]Y8rkUq1&9x#;"i%><TF?Rs@}#GJN2
{o)5]}-O6hz
Ytc{(aHlZ[:[%4s@5J-Ulrn>7XN}sA+&i[4{M0ZZMRM%
sO^1[=$4?@zk#oD1<h9JAX+{k<{qJ3{1fr*;dSV2*I#gW37iz:RZP}bn[};+S*>l<Dda+m
pjQ+5ieBH.HU?wVm8>efRJ32G,t"E"kTdp|wx"Y4Q'mP^v2?tu4y3vPY
wgVq*2)"T4rbqJS9jVaElZl'rKlM]xr9D#Oi|v2<]H?3&f{]0{*AN;)s}S5C^-?7kN
ax">!BX|gq&TEt]4u&aNtS6Vwei;oWu%H%AfeLV!pA*Uh4#BI#%1t.!da)U%;CfyfF;9F
HUBm2IFD9$3a;K.pN<.V@N[&zR!r%3s9@T+C}%tmQ-m,vj!wgv(F8s!.x.$?n'8[Mf%}_,b[(oHb=fx
A3-X+iT64u5*$B4nHG2^C318*.x2bi7|#
Njo"
10 2 1 4 3 6 8 9 5 7
10 3 5 6 4 1 8 9 7 2
2 10 9 8 4 7 1 3 6 5
4 2 1 3 6 10 8 5 7 9
10 1 6 9 8 5 4 2 7 3
10 2 5 4 3 9 1 6 8 7
3 6 2 9 5 1 8 7 4 10
5 2 9 3 10 1 8 7 6 4
2 10 8 1 9 4 3 5 6 7
