25

2
Candidate1
Candidate2
1 2

3
Candidate1
Candidate2
Candidate3
1 2 3
3 1 2

4
Candidate1
Candidate2
Candidate3
Candidate4
1 2 3 4
2 3 1 4

3
Candidate1
Candidate2
Candidate3
2 3 1
1 2 3
3 1 2

2
Candidate1
Candidate2
2 1

4
Candidate1
Candidate2
Candidate3
Candidate4
1 2 3 4
2 3 1 4

2
Candidate1
Candidate2
1 2

3
Candidate1
Candidate2
Candidate3
2 3 1
1 2 3
3 1 2

3
Candidate1
Candidate2
Candidate3
1 2 3
2 1 3
3 2 1

2
Candidate1
Candidate2
1 2

4
Candidate1
Candidate2
Candidate3
Candidate4
1 2 3 4
2 3 1 4

2
Candidate1
Candidate2
2 1

3
Candidate1
Candidate2
Candidate3
3 2 1
1 3 2
2 1 3

3
Candidate1
Candidate2
Candidate3
1 2 3
2 3 1
3 2 1

4
Candidate1
Candidate2
Candidate3
Candidate4
1 2 3 4
2 3 1 4

4
Candidate1
Candidate2
Candidate3
Candidate4
3 1 2 4
1 3 2 4
2 1 3 4

2
Candidate1
Candidate2
2 1

3
Candidate1
Candidate2
Candidate3
1 2 3
2 3 1
3 2 1

4
Candidate1
Candidate2
Candidate3
Candidate4
1 2 3 4
3 2 1 4

2
Candidate1
Candidate2
2 1

3
Candidate1
Candidate2
Candidate3
1 2 3
2 3 1
3 2 1
1 3 2
2 1 3
2 3 1
2 1 3

4
Candidate1
Candidate2
Candidate3
Candidate4
1 2 3 4
4 3 2 1
2 3 1 4
4 1 3 2
1 2 4 3
2 3 1 4
4 1 3 2
4 3 2 1
4 1 2 3
4 1 3 2
4 3 2 1
4 1 2 3
4 1 3 2
4 3 2 1
4 1 2 3

6
Candidate1
Candidate2
Candidate3
Candidate4
Candidate5
Candidate6
1 2 3 4 5 6

6
Candidate1
Candidate2
Candidate3
Candidate4
Candidate5
Candidate6
2 1 3 4 5 6

6
Candidate1
Candidate2
Candidate3
Candidate4
Candidate5
Candidate6
3 1 2 4 5 6
3 2 1 4 5 6
2 3 1 4 5 6
